{
    "admin/factomize_display_generated_key.html": {
        "version_id": 10000607,
        "version_string": "1.0.6",
        "hash": "e885c04244891b960270731f4e10ccf1"
    },
    "admin/factomize_entryCreditAddress.html": {
        "version_id": 10000607,
        "version_string": "1.0.6",
        "hash": "82fff0dd7462ec4f37a37b51aa84f49d"
    },
    "admin/factomize_factomd_password.html": {
        "version_id": 1013000,
        "version_string": "0.13.0",
        "hash": "e51902293552fb6197ab50352e4b087c"
    },
    "admin/factomize_factomwalletd_password.html": {
        "version_id": 1013000,
        "version_string": "0.13.0",
        "hash": "fc00185809edb1fdf0683145f97f7a1e"
    },
    "admin/factomize_generateKeyButton.html": {
        "version_id": 1012020,
        "version_string": "0.12.2",
        "hash": "fed1e0cf363a660c99837991253c55fc"
    },
    "admin/factomize_temp_signing_key.html": {
        "version_id": 1012020,
        "version_string": "0.12.2",
        "hash": "d171ea2cb7d3f84821235d73aabd8a71"
    },
    "admin/identity_chain_options_head.html": {
        "version_id": 1012020,
        "version_string": "0.12.2",
        "hash": "442c696b45723230a67600c977a9322c"
    },
    "public/canonicalledgers_factomize_info_view.html": {
        "version_id": 10000807,
        "version_string": "1.0.8",
        "hash": "7046fe857e6178e0afc86b3663854a77"
    },
    "public/canonicalledgers_factomize_verification_macros.html": {
        "version_id": 10001707,
        "version_string": "1.0.17",
        "hash": "c4f06ca76305ad30e331d2fb299bff15"
    },
    "public/factomize_info_styles.less": {
        "version_id": 1014010,
        "version_string": "0.14.1",
        "hash": "a4c5492bf978e281695ba0ae13c36067"
    },
    "public/verification_styles.less": {
        "version_id": 10001707,
        "version_string": "1.0.17",
        "hash": "6ad7977f03d6771e99c4c643179483e7"
    }
}