{
    "event_id": "entity_post_save",
    "execute_order": 10,
    "callback_class": "CanonicalLedgers\\Factomize\\Listener",
    "callback_method": "postEntityPostSave",
    "active": true,
    "hint": "XF\\Entity\\Post",
    "description": "Extends XF\\Entity\\Post post save for factomize forum nodes"
}