{
    "template": "thread_view",
    "description": "Displays verification status next to a thread",
    "execution_order": 10,
    "enabled": true,
    "action": "str_replace",
    "find": "\t<div class=\"block-outer\"><xf:trim>",
    "replace": "$0 <xf:if is=\"$thread.Forum.canonicalledgers_factomize_secure\">\n\t<xf:macro template=\"canonicalledgers_factomize_verification_macros\" name=\"verify_thread\" arg-thread_id=\"{$thread.thread_id}\" arg-chain_id=\"{$thread.canonicalledgers_factomize_chain_id}\" arg-status=\"{$firstPost.canonicalledgers_factomize_verification_status}\"></xf:macro>\n   </xf:if>"
}