{
    "template": "post_macros",
    "description": "Adds a verified icon to every post if it is secured with Factom using the Factomize add-on.",
    "execution_order": 10,
    "enabled": true,
    "action": "str_replace",
    "find": "\t\t\t\t\t\t<a href=\"{{ link('threads/post', $thread, {'post_id': $post.post_id}) }}\" class=\"message-attribution-main u-concealed\" rel=\"nofollow\"><xf:date time=\"{$post.post_date}\" /></a>",
    "replace": "$0 <xf:if is=\"$thread.Forum.canonicalledgers_factomize_secure\"><xf:macro template=\"canonicalledgers_factomize_verification_macros\" name=\"verify_post\" arg-post_id=\"{$post.post_id}\" arg-post_message=\"{$post.message}\" arg-chain_id=\"{$thread.canonicalledgers_factomize_chain_id}\" arg-entry_hash=\"{$post.canonicalledgers_factomize_entry_hash}\" arg-public_data=\"{$post.canonicalledgers_factomize_public_data}\" arg-status=\"{$post.canonicalledgers_factomize_verification_status}\" arg-isFirstPost=\"{$post.isFirstPost()}\" arg-title=\"{$thread.title}\" arg-thread=\"{$thread}\"/></xf:if>"
}