{
    "cron_entry.advanceFactomQueue.txt": {
        "global_cache": false,
        "version_id": 1,
        "version_string": "0.0.1 Alpha",
        "hash": "85e9b2406ea2774e0ab0adf0fab41168"
    },
    "factomizeInfo.addonName.txt": {
        "global_cache": false,
        "version_id": 1012020,
        "version_string": "0.12.2",
        "hash": "54124cd669041ce4533d1944ce9b910f"
    },
    "factomizeInfo.author.txt": {
        "global_cache": false,
        "version_id": 1012020,
        "version_string": "0.12.2",
        "hash": "8a1fe569615ec4cf69b3384e7bca458e"
    },
    "factomizeInfo.chainId.txt": {
        "global_cache": false,
        "version_id": 10000207,
        "version_string": "1.0.2",
        "hash": "dc2951641ae98ece20f9842280f71e25"
    },
    "factomizeInfo.entryContent.txt": {
        "global_cache": false,
        "version_id": 1012020,
        "version_string": "0.12.2",
        "hash": "c056f8db22a0be047d7e36b3ec3b4f2c"
    },
    "factomizeInfo.entryHash.txt": {
        "global_cache": false,
        "version_id": 10000207,
        "version_string": "1.0.2",
        "hash": "5f4147de5f1539b7796ae607d57ab814"
    },
    "factomizeInfo.pending.txt": {
        "global_cache": false,
        "version_id": 1012020,
        "version_string": "0.12.2",
        "hash": "2d13df6f8b5e4c5af9f87e0dc39df69d"
    },
    "factomizeInfo.rawMessageContent.txt": {
        "global_cache": false,
        "version_id": 1012020,
        "version_string": "0.12.2",
        "hash": "2b233fb85fab3673a28c81eb0068762a"
    },
    "factomizeInfo.rawTitleContent.txt": {
        "global_cache": false,
        "version_id": 1012020,
        "version_string": "0.12.2",
        "hash": "c9346de8674143799db6796d05452c39"
    },
    "factomizeInfo.secured.txt": {
        "global_cache": false,
        "version_id": 1012020,
        "version_string": "0.12.2",
        "hash": "a462327fd6b86eab4280e999c1c20108"
    },
    "factomizeInfo.unsecured.txt": {
        "global_cache": false,
        "version_id": 1012020,
        "version_string": "0.12.2",
        "hash": "ada9b22e6fe65ea74dad0d126e664a74"
    },
    "factomizeInfo.whatThis.txt": {
        "global_cache": false,
        "version_id": 10000507,
        "version_string": "1.0.5",
        "hash": "efc45797ddd32ddad81371c29f3d549b"
    },
    "factomize_info_page.howdoisigningkey_body.txt": {
        "global_cache": false,
        "version_id": 10000507,
        "version_string": "1.0.5",
        "hash": "806e10779fb9e86b3ac7fa123f279c09"
    },
    "factomize_info_page.howdoisigningkey_title.txt": {
        "global_cache": false,
        "version_id": 10000103,
        "version_string": "1.0.1",
        "hash": "260f8d8b97a957c3152e70366254c6ea"
    },
    "factomize_info_page.howdoiverify_body.txt": {
        "global_cache": false,
        "version_id": 10000807,
        "version_string": "1.0.8",
        "hash": "20b2dfe38fc538127fc7d7498dcc3b24"
    },
    "factomize_info_page.howdoiverify_title.txt": {
        "global_cache": false,
        "version_id": 1013030,
        "version_string": "0.13.3",
        "hash": "4f8a9a19cde83cceeaf095430231b942"
    },
    "factomize_info_page.howitworks_body.txt": {
        "global_cache": false,
        "version_id": 1013030,
        "version_string": "0.13.3",
        "hash": "640bff2776dc9f36c68d6adcb12ad92e"
    },
    "factomize_info_page.howitworks_title.txt": {
        "global_cache": false,
        "version_id": 1013030,
        "version_string": "0.13.3",
        "hash": "359f9e79e746fa9f684e5cda9e60ca2e"
    },
    "factomize_info_page.howtouse_body.txt": {
        "global_cache": false,
        "version_id": 1014010,
        "version_string": "0.14.1",
        "hash": "7bc65f8c55223ed66b55d640ec29152b"
    },
    "factomize_info_page.howtouse_title.txt": {
        "global_cache": false,
        "version_id": 1013030,
        "version_string": "0.13.3",
        "hash": "f9041e6900d1a3120a86e347b2cfb384"
    },
    "factomize_info_page.title.txt": {
        "global_cache": false,
        "version_id": 1013030,
        "version_string": "0.13.3",
        "hash": "1c38a2dd3a43a3fc0cce27d2eb4f2458"
    },
    "factomize_info_page.whatisit_body.txt": {
        "global_cache": false,
        "version_id": 1013030,
        "version_string": "0.13.3",
        "hash": "e4173bbd9cece6763dbb2638927b226d"
    },
    "factomize_info_page.whatisit_title.txt": {
        "global_cache": false,
        "version_id": 1013030,
        "version_string": "0.13.3",
        "hash": "7ab5800dafc75c6631e05b9e0f04c851"
    },
    "factomize_info_page.whobuiltit_body.txt": {
        "global_cache": false,
        "version_id": 10000507,
        "version_string": "1.0.5",
        "hash": "88360b483317b5c1f79e8f94ad3d80d4"
    },
    "factomize_info_page.whobuiltit_title.txt": {
        "global_cache": false,
        "version_id": 1013030,
        "version_string": "0.13.3",
        "hash": "62d5eab5f6cc9b658ee015e97741abc1"
    },
    "option.copyToClipboard.txt": {
        "global_cache": false,
        "version_id": 1012020,
        "version_string": "0.12.2",
        "hash": "a612782072a3b8f151c5e2120ef20efd"
    },
    "option.currentSigningKey.txt": {
        "global_cache": false,
        "version_id": 1012020,
        "version_string": "0.12.2",
        "hash": "0c31637d76219ebbcb0f3467c07d24f2"
    },
    "option.dontChangePassword.txt": {
        "global_cache": false,
        "version_id": 1012020,
        "version_string": "0.12.2",
        "hash": "269d4e0236a5f64811925945522e2e0e"
    },
    "option.entryCreditAddress.txt": {
        "global_cache": false,
        "version_id": 109000,
        "version_string": "0.9.0 Alpha",
        "hash": "f3b61bcaa92079b89e212945b1883c8d"
    },
    "option.entryCreditBalance.txt": {
        "global_cache": false,
        "version_id": 1012020,
        "version_string": "0.12.2",
        "hash": "b5397350cbd6dcc4fe899771c728f5d1"
    },
    "option.entryCreditBalance_error.txt": {
        "global_cache": false,
        "version_id": 1014030,
        "version_string": "0.14.3",
        "hash": "4d268c7173649e456243da492d504302"
    },
    "option.factomWalletdEndpointAddress.txt": {
        "global_cache": false,
        "version_id": 1014030,
        "version_string": "0.14.3",
        "hash": "973465326062875252ba924617ff587a"
    },
    "option.factomWalletdPassword.txt": {
        "global_cache": false,
        "version_id": 1014030,
        "version_string": "0.14.3",
        "hash": "703784200f7bdaffd8ff94ad633cc64e"
    },
    "option.factomWalletdUsername.txt": {
        "global_cache": false,
        "version_id": 1014030,
        "version_string": "0.14.3",
        "hash": "1e50213b74ff8ffb2c3a8fa80856a758"
    },
    "option.factomdEndpointAddress.txt": {
        "global_cache": false,
        "version_id": 108001,
        "version_string": "0.8.1 Alpha",
        "hash": "7f0cf5a0c00771765b61760b011a5477"
    },
    "option.factomdPassword.txt": {
        "global_cache": false,
        "version_id": 109000,
        "version_string": "0.9.0 Alpha",
        "hash": "a3e61630d44621db6d874f98e24caac4"
    },
    "option.factomdUsername.txt": {
        "global_cache": false,
        "version_id": 108001,
        "version_string": "0.8.1 Alpha",
        "hash": "4a3386b19899f7b911a7673194864563"
    },
    "option.factomize_temp_signing_key.txt": {
        "global_cache": false,
        "version_id": 1012020,
        "version_string": "0.12.2",
        "hash": "0f85070f448562bc57089a3509797ee6"
    },
    "option.generateNewKey.txt": {
        "global_cache": false,
        "version_id": 1012020,
        "version_string": "0.12.2",
        "hash": "c389abbab86122c58cce3d8023eb1a4a"
    },
    "option.getTemporaryKey.txt": {
        "global_cache": false,
        "version_id": 108001,
        "version_string": "0.8.1 Alpha",
        "hash": "53b7eb4ddf1a53576525dbf547d71a9b"
    },
    "option.identityChainAddress.txt": {
        "global_cache": false,
        "version_id": 10000807,
        "version_string": "1.0.8",
        "hash": "b841cfc77289fc5cc9c646ed8f9be0ff"
    },
    "option.identityChainLink.txt": {
        "global_cache": false,
        "version_id": 1012020,
        "version_string": "0.12.2",
        "hash": "bfb84b90fa7c987b384b1e4c73a5b2c0"
    },
    "option.identityChainStart.txt": {
        "global_cache": false,
        "version_id": 1010000,
        "version_string": "0.10.0 Alpha",
        "hash": "719ccd9a8c2de4e42b02423d1d78814f"
    },
    "option.identityChainTools.txt": {
        "global_cache": false,
        "version_id": 1012020,
        "version_string": "0.12.2",
        "hash": "3f925d3126fe1a3099ef95190fd01733"
    },
    "option.keyUpToDate.txt": {
        "global_cache": false,
        "version_id": 1012020,
        "version_string": "0.12.2",
        "hash": "0ac38e188ce1fe77ca22be030b5b57dc"
    },
    "option.noPassword.txt": {
        "global_cache": false,
        "version_id": 1012020,
        "version_string": "0.12.2",
        "hash": "f8cf7801bd44f47bdf08e4ab122ab5bc"
    },
    "option.noSigningKeyEstablished.txt": {
        "global_cache": false,
        "version_id": 1012020,
        "version_string": "0.12.2",
        "hash": "cca007903004159d621fbd362ccf2a44"
    },
    "option.setNewPassword.txt": {
        "global_cache": false,
        "version_id": 1012020,
        "version_string": "0.12.2",
        "hash": "bc6b03411ebad830235d1ba37180d570"
    },
    "option.setUpSigningKey.txt": {
        "global_cache": false,
        "version_id": 1012020,
        "version_string": "0.12.2",
        "hash": "dfe43938df96c399e29a0bb6ab59f949"
    },
    "option.tempSigningKey.txt": {
        "global_cache": false,
        "version_id": 1011000,
        "version_string": "0.11.0",
        "hash": "fab7846ce5dbe3a2e11db1fe4396e211"
    },
    "option_explain.entryCreditAddress.txt": {
        "global_cache": false,
        "version_id": 1012010,
        "version_string": "0.12.1",
        "hash": "e826e1c0c9e454c76e3f71a6db5b48c9"
    },
    "option_explain.factomWalletdEndpointAddress.txt": {
        "global_cache": false,
        "version_id": 1014030,
        "version_string": "0.14.3",
        "hash": "6c3b7111232f9d2ec793ed3590dd0a1f"
    },
    "option_explain.factomWalletdPassword.txt": {
        "global_cache": false,
        "version_id": 1014030,
        "version_string": "0.14.3",
        "hash": "a32a553ecda6dd27e8006a2ddae94284"
    },
    "option_explain.factomWalletdUsername.txt": {
        "global_cache": false,
        "version_id": 1014030,
        "version_string": "0.14.3",
        "hash": "19b700a341c5ae3d70ad3694ec0104f2"
    },
    "option_explain.factomdEndpointAddress.txt": {
        "global_cache": false,
        "version_id": 1014030,
        "version_string": "0.14.3",
        "hash": "c2c637e0a7c30fcd876495ee969d7653"
    },
    "option_explain.factomdPassword.txt": {
        "global_cache": false,
        "version_id": 1014030,
        "version_string": "0.14.3",
        "hash": "47970d51afe739a18891bc1bfa2f17a2"
    },
    "option_explain.factomdPasswordd.txt": {
        "global_cache": false,
        "version_id": 108001,
        "version_string": "0.8.1 Alpha",
        "hash": "07d3adfaaadf3278ee1c2a522e76c860"
    },
    "option_explain.factomdUsername.txt": {
        "global_cache": false,
        "version_id": 1014030,
        "version_string": "0.14.3",
        "hash": "38ecb54b3de6eae49bf7012d1ac00d7f"
    },
    "option_explain.generateNewKey.txt": {
        "global_cache": false,
        "version_id": 108001,
        "version_string": "0.8.1 Alpha",
        "hash": "620e46a16720beda9a06bbd7c61c16ca"
    },
    "option_explain.getTemporaryKey.txt": {
        "global_cache": false,
        "version_id": 108001,
        "version_string": "0.8.1 Alpha",
        "hash": "d41d8cd98f00b204e9800998ecf8427e"
    },
    "option_explain.identityChainAddress.txt": {
        "global_cache": false,
        "version_id": 10000807,
        "version_string": "1.0.8",
        "hash": "80da4bc27366be3cfccb8282933232bc"
    },
    "option_explain.identityChainStart.txt": {
        "global_cache": false,
        "version_id": 1010000,
        "version_string": "0.10.0 Alpha",
        "hash": "d41d8cd98f00b204e9800998ecf8427e"
    },
    "option_explain.tempSigningKey.txt": {
        "global_cache": false,
        "version_id": 1011000,
        "version_string": "0.11.0",
        "hash": "d41d8cd98f00b204e9800998ecf8427e"
    },
    "option_group.canonicalLedgersFactomize.txt": {
        "global_cache": false,
        "version_id": 1,
        "version_string": "0.0.1 Alpha",
        "hash": "5ee0d5aefc2baa7165345b0f6ed75484"
    },
    "option_group_description.canonicalLedgersFactomize.txt": {
        "global_cache": false,
        "version_id": 109000,
        "version_string": "0.9.0 Alpha",
        "hash": "1cd7a746e87ecd14b948e226a336483c"
    }
}