{
    "template": "forum_edit",
    "description": "Adds the option to secure a forum using the Factomize add-on.",
    "execution_order": 1,
    "enabled": true,
    "action": "str_replace",
    "find": "<xf:option name=\"allow_posting\" selected=\"$forum.allow_posting\"",
    "replace": "<xf:option name=\"canonicalledgers_factomize_secure\" selected=\"$forum.canonicalledgers_factomize_secure\"\n\tlabel=\"Factomize all new threads and posts under this forum\"\n\thint=\"If this option is selected, any new post or thread in this forum will automatically be factomized.\" />\n<xf:option name=\"canonicalledgers_factomize_existing\" selected=\"$forum.canonicalledgers_factomize_existing\"\n\tlabel=\"Factomize all existing threads and posts under this forum\"\n\thint=\"If this option is selected, any existing thread and post that is not currently factomized will be secured with Factom.\" />\n$0"
}